…
``` r
vancouver_trees %>%
 summarize((diameter_max=max(diameter, na.rm=TRUE))) #The largest diameter is an enormous 435
```

    ## # A tibble: 1 × 1
    ##   `(diameter_max = max(diameter, na.rm = TRUE))`
    ##                                            <dbl>
    ## 1                                            435

``` r
vancouver_trees %>% count(species_name) #I wanted to know the total number of species of trees present in Vancouver. I used count to determine all the unique variables within the column species_name and found that there are 283 species.
```

    ## # A tibble: 283 × 2
    ##    species_name       n
    ##    <chr>          <int>
    ##  1 ABIES            139
    ##  2 ACERIFOLIA   X  1724
    ##  3 ACUMINATA          7
    ##  4 ACUTISSIMA       526
    ##  5 AILANTHIFOLIA      5
    ##  6 ALBA              26
    ##  7 ALBA-SINENSIS      3
    ##  8 ALNIFOLIA        274
    ##  9 ALPINUM            1
    ## 10 ALTISSIMA          4
    ## # ℹ 273 more rows
…
